Google translate
	"The current Bronya should be called..."
     •
    "The Herrscher of Truth?"
     •
    "The Herrscher of Truth."
     •
    "Yes, Herrscher of Truth."
     •
    "The Herrscher of Truth."
     •
    "Huh? Is something wrong?"
     •
    "Look, the Lawrer of Truth,"
     •
    "Every word is exactly the same as what you just said."
     •
    "You speak of the Herrscher of Truth."
     •
    "Huh? Isn't it?"
     •
    "Are you the Herrscher of False Reasons!"
     •
    "Kiana, don't think Bronya can't hit you just because you're on the moon."
     •
    "Hahahaha, it's been a long time since I teased Bronya."
     •
    "Sorry, sorry, don't hit me~ I apologize!"
     •
    "Hmph. Bronya is not angry either."
 CN Text 
   "现在的布洛妮娅，应该是叫做……"
    •
   "真理之律者吧？"
    •
   "是真理之律者。"
    •
   "对呀，真理之律者。"
    •
   "是真理之律者。"
    •
   "嗯？有什么不对吗？"
    •
   "你看真·理·之·律·者，"
    •
   "每一个字都和你刚才说的一模一样。"
    •
   "你说的是真·理之律者。"
    •
   "诶？不对吗？"
    •
   "难道你是假理之律者！"
    •
   "琪亚娜，别以为你在月球布洛妮娅就打不到你。"
    •
   "哈哈哈哈，好久没逗布洛妮娅了嘛。"
    •
   "抱歉抱歉，不要打我啦~我道歉！"
    •
   "哼。布洛妮娅也没有生气就是了。"